[{
    "id": "632",
    "color1": null,
    "textColor1": null,
    "fullname": "Argentina",
    "shortname": "Argentina",
    "name": "Argentina",
    "initials": "ARG",
    "nationId": 1,
    "history": null
}, {
    "id": "3938",
    "color1": "#0092BE",
    "textColor1": "#FFFFFF",
    "fullname": "Argentina Sub20",
    "shortname": "Argentina S20",
    "name": "Argentina S20",
    "initials": "ARG",
    "nationId": 1,
    "history": null
}, {
    "id": "arg-S17",
    "color1": null,
    "textColor1": null,
    "fullname": "Asociacion de futbol argentino",
    "shortname": "ARG",
    "name": "Argentina Sub17",
    "initials": "ARG",
    "nationId": 1,
    "history": null
}, {
    "id": "846",
    "color1": null,
    "textColor1": null,
    "fullname": "Argentinos Juniors",
    "shortname": "Argentinos Juniors",
    "name": "Argentinos Juniors",
    "initials": "ARG",
    "nationId": 1,
    "history": null
}, {
    "id": "1373",
    "color1": null,
    "textColor1": null,
    "fullname": "Clube Atlético Mineiro",
    "shortname": "Atlético Mineiro",
    "name": "Atlético Mineiro",
    "initials": "ATM",
    "nationId": 5,
    "history": null
}, {
    "id": "2302",
    "color1": null,
    "textColor1": null,
    "fullname": "Atlético Nacional",
    "shortname": "Atlético Nacional",
    "name": "Atlético Nacional",
    "initials": "ATN",
    "nationId": 7,
    "history": null
}, {
    "id": "2634",
    "color1": "#196C22",
    "textColor1": "#FFFFFF",
    "fullname": "Audax Italiano",
    "shortname": "Audax Italiano",
    "name": "Audax Italiano",
    "initials": "AUD",
    "nationId": 6,
    "history": "Fue fundado el 30 de noviembre de 1910 por miembros de la colonia italiana residente en Chile como un club de ciclismo denominado Audax Club Ciclista Italiano."
}, {
    "id": "1578",
    "color1": null,
    "textColor1": null,
    "fullname": "Bahia",
    "shortname": "Bahia",
    "name": "Bahia",
    "initials": "BAH",
    "nationId": 5,
    "history": null
}, {
    "id": "7626",
    "color1": "#30467F",
    "textColor1": "#FFFFFF",
    "fullname": "Barnechea",
    "shortname": "Barnechea",
    "name": "Barnechea",
    "initials": "BFC",
    "nationId": 6,
    "history": null
}, {
    "id": "512",
    "color1": null,
    "textColor1": null,
    "fullname": null,
    "shortname": null,
    "name": "Belarus",
    "initials": null,
    "nationId": null,
    "history": null
}, {
    "id": "836",
    "color1": null,
    "textColor1": null,
    "fullname": "Bolivia",
    "shortname": "Bolivia",
    "name": "Bolivia",
    "initials": "BOL",
    "nationId": 4,
    "history": null
}, {
    "id": "10733",
    "color1": "#165D00",
    "textColor1": "#FFFFFF",
    "fullname": "Bolivia Sub20",
    "shortname": "Bolivia S20",
    "name": "Bolivia S20",
    "initials": "BOL",
    "nationId": 4,
    "history": null
}, {
    "id": "bol-S17",
    "color1": null,
    "textColor1": null,
    "fullname": "Federacion Boliviana de Futbol",
    "shortname": "BOL",
    "name": "Bolivia Sub17",
    "initials": "BOL",
    "nationId": 8,
    "history": null
}, {
    "id": "1419",
    "color1": null,
    "textColor1": null,
    "fullname": "Botafogo",
    "shortname": "Botafogo",
    "name": "Botafogo",
    "initials": "BOT",
    "nationId": 5,
    "history": null
}, {
    "id": "614",
    "color1": null,
    "textColor1": null,
    "fullname": "Brasil",
    "shortname": "Brasil",
    "name": "Brasil",
    "initials": "BRA",
    "nationId": 5,
    "history": null
}, {
    "id": "3694",
    "color1": "#86901B",
    "textColor1": "#FFFFFF",
    "fullname": "Brasil Sub20",
    "shortname": "Brasil S20",
    "name": "Brasil S20",
    "initials": "BRA",
    "nationId": 5,
    "history": null
}, {
    "id": "bra-S17",
    "color1": null,
    "textColor1": null,
    "fullname": "Confederación Brasileña de Fútbol",
    "shortname": "BRA",
    "name": "Brasil Sub17",
    "initials": "BRA",
    "nationId": 5,
    "history": null
}, {
    "id": "502",
    "color1": null,
    "textColor1": null,
    "fullname": null,
    "shortname": null,
    "name": "Bulgaria",
    "initials": null,
    "nationId": null,
    "history": null
}, {
    "id": "3331",
    "color1": null,
    "textColor1": null,
    "fullname": "Caracas Fútbol Club",
    "shortname": "Caracas FC",
    "name": "Caracas FC",
    "initials": "CFC",
    "nationId": 13,
    "history": null
}, {
    "id": "1873",
    "color1": null,
    "textColor1": null,
    "fullname": "Catar",
    "shortname": "Catar",
    "name": "Catar",
    "initials": "QAT",
    "nationId": null,
    "history": null
}, {
    "id": "2683",
    "color1": null,
    "textColor1": null,
    "fullname": "Cerro",
    "shortname": "Cerro",
    "name": "Cerro",
    "initials": "CRR",
    "nationId": 12,
    "history": null
}, {
    "id": "8634",
    "color1": null,
    "textColor1": null,
    "fullname": "Chapecoense",
    "shortname": "Chapecoense",
    "name": "Chapecoense",
    "initials": "CHA",
    "nationId": 5,
    "history": null
}, {
    "id": "831",
    "color1": null,
    "textColor1": null,
    "fullname": "Chile",
    "shortname": "Chile",
    "name": "Chile",
    "initials": "CHI",
    "nationId": 6,
    "history": null
}, {
    "id": "10369",
    "color1": "#D60A0A",
    "textColor1": "#FFFFFF",
    "fullname": "Chile Sub20",
    "shortname": "Chile S20",
    "name": "Chile S20",
    "initials": "CHL",
    "nationId": 6,
    "history": null
}, {
    "id": "chi-S17",
    "color1": null,
    "textColor1": null,
    "fullname": "Federación de Fútbol de Chile",
    "shortname": "CHI",
    "name": "Chile Sub17",
    "initials": "CHI",
    "nationId": 11,
    "history": null
}, {
    "id": "3328",
    "color1": null,
    "textColor1": null,
    "fullname": "Club Guaraní",
    "shortname": "Club Guaraní",
    "name": "Club Guaraní",
    "initials": "CGR",
    "nationId": 10,
    "history": null
}, {
    "id": "2635",
    "color1": "#E05400",
    "textColor1": "#FFFFFF",
    "fullname": "Cobreloa",
    "shortname": "Cobreloa",
    "name": "Cobreloa",
    "initials": "COB",
    "nationId": 6,
    "history": null
}, {
    "id": "2640",
    "color1": "#BE8234",
    "textColor1": "#FFFFFF",
    "fullname": "Cobresal",
    "shortname": "Cobresal",
    "name": "Cobresal",
    "initials": "CSL",
    "nationId": 6,
    "history": "Fue fundado el 5 de mayo de 1979."
}, {
    "id": "14342",
    "color1": null,
    "textColor1": null,
    "fullname": "Colchagua",
    "shortname": "Colchagua",
    "name": "Colchagua",
    "initials": "CCH",
    "nationId": 6,
    "history": null
}, {
    "id": "2641",
    "color1": "#000000",
    "textColor1": "#FFFFFF",
    "fullname": "Colo Colo",
    "shortname": "Colo-Colo",
    "name": "Colo Colo",
    "initials": "COL",
    "nationId": 6,
    "history": null
}, {
    "id": "832",
    "color1": null,
    "textColor1": null,
    "fullname": "Colombia",
    "shortname": "Colombia",
    "name": "Colombia",
    "initials": "COL",
    "nationId": 7,
    "history": null
}, {
    "id": "5603",
    "color1": "#9EA300",
    "textColor1": "#FFFFFF",
    "fullname": "Colombia Sub20",
    "shortname": "Colombia S20",
    "name": "Colombia S20",
    "initials": "COL",
    "nationId": 7,
    "history": null
}, {
    "id": "col-S17",
    "color1": null,
    "textColor1": null,
    "fullname": "Federación Colombiana de Fútbol",
    "shortname": "COL",
    "name": "Colombia Sub17",
    "initials": "COL",
    "nationId": 7,
    "history": null
}, {
    "id": "1027",
    "color1": null,
    "textColor1": null,
    "fullname": "Colón Santa Fe",
    "shortname": "Colón Santa Fe",
    "name": "Colón Santa Fe",
    "initials": "COL",
    "nationId": 1,
    "history": null
}, {
    "id": "3672",
    "color1": "#FFB900",
    "textColor1": "#FFFFFF",
    "fullname": "Coquimbo Unido",
    "shortname": "Coquimbo Unido",
    "name": "Coquimbo Unido",
    "initials": "COQ",
    "nationId": 6,
    "history": null
}, {
    "id": "609",
    "color1": null,
    "textColor1": null,
    "fullname": "Corinthians",
    "shortname": "Corinthians",
    "name": "Corinthians",
    "initials": "COR",
    "nationId": 5,
    "history": null
}, {
    "id": "838",
    "color1": null,
    "textColor1": null,
    "fullname": null,
    "shortname": null,
    "name": "Costa Rica",
    "initials": null,
    "nationId": null,
    "history": null
}, {
    "id": "535",
    "color1": null,
    "textColor1": null,
    "fullname": null,
    "shortname": null,
    "name": "Croatia",
    "initials": null,
    "nationId": null,
    "history": null
}, {
    "id": "7628",
    "color1": "#C60001",
    "textColor1": "#FFFFFF",
    "fullname": "Curicó Unido",
    "shortname": "Curicó Unido",
    "name": "Curicó Unido",
    "initials": "CUR",
    "nationId": 6,
    "history": null
}, {
    "id": "367",
    "color1": null,
    "textColor1": null,
    "fullname": null,
    "shortname": null,
    "name": "Czech Republic",
    "initials": null,
    "nationId": null,
    "history": null
}, {
    "id": "2630",
    "color1": "#1E2D63",
    "textColor1": "#FFFFFF",
    "fullname": "D. Antofagasta",
    "shortname": "DEP. ANTOFAGASTA",
    "name": "DEP. ANTOFAGASTA",
    "initials": "ANT",
    "nationId": 6,
    "history": "Fue fundado el 14 de mayo de 1966 bajo la denominación de Club de Deportes Antofagasta Portuario, fruto de la fusión de dos clubes de la ciudad, Unión Bellavista y Portuario Atacama."
}, {
    "id": "8652",
    "color1": "#E80600",
    "textColor1": "#FFFFFF",
    "fullname": "D. Copiapó",
    "shortname": "DEP. COPIAPÓ",
    "name": "DEP. COPIAPÓ",
    "initials": "COP",
    "nationId": 6,
    "history": null
}, {
    "id": "8625",
    "color1": null,
    "textColor1": null,
    "fullname": "Defensa y Justicia",
    "shortname": "Defensa y Justicia",
    "name": "Defensa y Justicia",
    "initials": "DYJ",
    "nationId": 1,
    "history": null
}, {
    "id": "369",
    "color1": null,
    "textColor1": null,
    "fullname": null,
    "shortname": null,
    "name": "Denmark",
    "initials": null,
    "nationId": null,
    "history": null
}, {
    "id": "14335",
    "color1": null,
    "textColor1": null,
    "fullname": "Deportes Colina",
    "shortname": "Deportes Colina",
    "name": "Deportes Colina",
    "initials": "COL",
    "nationId": 6,
    "history": null
}, {
    "id": "2643",
    "color1": null,
    "textColor1": null,
    "fullname": "Deportes Concepción",
    "shortname": "Deportes Concepción",
    "name": "Deportes Concepción",
    "initials": "DC",
    "nationId": 6,
    "history": null
}, {
    "id": "6350",
    "color1": "#0096DC",
    "textColor1": "#FFFFFF",
    "fullname": "Deportes Iquique",
    "shortname": "DEP. IQUIQUE",
    "name": "DEP. IQUIQUE",
    "initials": "IQUI",
    "nationId": 6,
    "history": null
}, {
    "id": "14336",
    "color1": "#000006",
    "textColor1": "#FFFFFF",
    "fullname": "Deportes Limache",
    "shortname": "Deportes Limache",
    "name": "Deportes Limache",
    "initials": "DLI",
    "nationId": 6,
    "history": null
}, {
    "id": "14337",
    "color1": "#DA010C",
    "textColor1": "#FFFFFF",
    "fullname": "Club de Deportes Linares",
    "shortname": "Deportes Linares",
    "name": "Deportes Linares",
    "initials": "LIN",
    "nationId": 6,
    "history": null
}, {
    "id": "14343",
    "color1": null,
    "textColor1": null,
    "fullname": "Deportes Recoleta",
    "shortname": "Deportes Recoleta",
    "name": "Deportes Recoleta",
    "initials": "DRE",
    "nationId": 6,
    "history": null
}, {
    "id": "15609",
    "color1": null,
    "textColor1": null,
    "fullname": "Deportes Rengo",
    "shortname": "Deportes Rengo",
    "name": "Deportes Rengo",
    "initials": "DRE",
    "nationId": 6,
    "history": null
}, {
    "id": "8656",
    "color1": "#045A03",
    "textColor1": "#FFFFFF",
    "fullname": "Deportes Temuco",
    "shortname": "DEP. TEMUCO",
    "name": "DEP. TEMUCO",
    "initials": "TEM",
    "nationId": 6,
    "history": null
}, {
    "id": "2674",
    "color1": null,
    "textColor1": null,
    "fullname": "Club Deportes Tolima",
    "shortname": "Tolima",
    "name": "Deportes Tolima",
    "initials": "TOL",
    "nationId": 7,
    "history": null
}, {
    "id": "14102",
    "color1": null,
    "textColor1": null,
    "fullname": "Deportes Vallenar",
    "shortname": "Deportes Vallenar",
    "name": "Deportes Vallenar",
    "initials": "VAL",
    "nationId": 6,
    "history": null
}, {
    "id": "14150",
    "color1": null,
    "textColor1": null,
    "fullname": "Deportivo Binacional",
    "shortname": "Deportivo Binacional",
    "name": "Deportivo Binacional",
    "initials": "BIN",
    "nationId": null,
    "history": null
}, {
    "id": "2475",
    "color1": null,
    "textColor1": null,
    "fullname": "Deportivo Cali",
    "shortname": "Deportivo Cali",
    "name": "Deportivo Cali",
    "initials": "DCA",
    "nationId": 7,
    "history": null
}, {
    "id": "5521",
    "color1": null,
    "textColor1": null,
    "fullname": "Club Deportivo Lara",
    "shortname": "Deportivo Lara",
    "name": "Deportivo Lara",
    "initials": "LAR",
    "nationId": 13,
    "history": null
}, {
    "id": "10760",
    "color1": null,
    "textColor1": null,
    "fullname": "Deportivo Municipal",
    "shortname": "Deportivo Municipal",
    "name": "Deportivo Municipal",
    "initials": "CDM",
    "nationId": null,
    "history": null
}, {
    "id": "10748",
    "color1": null,
    "textColor1": null,
    "fullname": "Deportivo Santaní",
    "shortname": "Deportivo Santaní",
    "name": "Deportivo Santaní",
    "initials": "CDS",
    "nationId": 10,
    "history": null
}, {
    "id": "14344",
    "color1": null,
    "textColor1": null,
    "fullname": "Dep. Santa Cruz",
    "shortname": "Deportes Santa Cruz",
    "name": "Dep. Santa Cruz",
    "initials": "DSC",
    "nationId": 6,
    "history": null
}, {
    "id": "11740",
    "color1": "#A0252A",
    "textColor1": "#FFFFFF",
    "fullname": "Dep. Valdivia",
    "shortname": "DEP. VALDIVIA",
    "name": "DEP. VALDIVIA",
    "initials": "DPV",
    "nationId": 6,
    "history": null
}, {
    "id": "7627",
    "color1": null,
    "textColor1": null,
    "fullname": "D. Puerto Montt",
    "shortname": "DEP. PUERTO MONTT",
    "name": "DEP. PUERTO MONTT",
    "initials": "PTO",
    "nationId": 6,
    "history": null
}, {
    "id": "830",
    "color1": null,
    "textColor1": null,
    "fullname": "Ecuador",
    "shortname": "Ecuador",
    "name": "Ecuador",
    "initials": "ECU",
    "nationId": 8,
    "history": null
}, {
    "id": "6313",
    "color1": "#8B8A09",
    "textColor1": "#FFFFFF",
    "fullname": "Ecuador Sub20",
    "shortname": "Ecuador S20",
    "name": "Ecuador S20",
    "initials": "ECU",
    "nationId": 8,
    "history": null
}, {
    "id": "ecu-S17",
    "color1": null,
    "textColor1": null,
    "fullname": "Federacion Ecuatoriana de Futbol",
    "shortname": "ECU",
    "name": "Ecuador Sub17",
    "initials": "ECU",
    "nationId": 8,
    "history": null
}, {
    "id": "500",
    "color1": null,
    "textColor1": null,
    "fullname": null,
    "shortname": null,
    "name": "Estonia",
    "initials": null,
    "nationId": null,
    "history": null
}, {
    "id": "7110",
    "color1": null,
    "textColor1": null,
    "fullname": "Estudiantes de Mérida",
    "shortname": "Estudiantes de Mérida",
    "name": "Estudiantes de Mérida",
    "initials": "EME",
    "nationId": 13,
    "history": null
}, {
    "id": "2644",
    "color1": "#2E37B0",
    "textColor1": "#FFFFFF",
    "fullname": "Everton",
    "shortname": "EVERTON",
    "name": "EVERTON",
    "initials": "EVE",
    "nationId": 6,
    "history": null
}, {
    "id": "14345",
    "color1": "#FFCC00",
    "textColor1": "#FFFFFF",
    "fullname": "Fernández Vial",
    "shortname": "Fernández Vial",
    "name": "Fernández Vial",
    "initials": "FEV",
    "nationId": 6,
    "history": null
}, {
    "id": "1734",
    "color1": null,
    "textColor1": null,
    "fullname": "Fluminense",
    "shortname": "Fluminense",
    "name": "Fluminense",
    "initials": "FLU",
    "nationId": 5,
    "history": null
}, {
    "id": "14346",
    "color1": null,
    "textColor1": null,
    "fullname": "General Velásquez",
    "shortname": "General Velásquez",
    "name": "General Velásquez",
    "initials": "GEN",
    "nationId": 6,
    "history": null
}, {
    "id": "520",
    "color1": null,
    "textColor1": null,
    "fullname": null,
    "shortname": null,
    "name": "Georgia",
    "initials": null,
    "nationId": null,
    "history": null
}, {
    "id": "357",
    "color1": null,
    "textColor1": null,
    "fullname": null,
    "shortname": null,
    "name": "Germany",
    "initials": null,
    "nationId": null,
    "history": null
}, {
    "id": "9493",
    "color1": null,
    "textColor1": null,
    "fullname": null,
    "shortname": null,
    "name": "Gibraltar",
    "initials": null,
    "nationId": null,
    "history": null
}, {
    "id": "8844",
    "color1": null,
    "textColor1": null,
    "fullname": "Guabirá",
    "shortname": "Guabirá",
    "name": "Guabirá",
    "initials": "GUA",
    "nationId": 4,
    "history": null
}, {
    "id": "1066",
    "color1": "#091472",
    "textColor1": "#FFFFFF",
    "fullname": "Huachipato",
    "shortname": "Huachipato",
    "name": "Huachipato",
    "initials": "HUA",
    "nationId": 6,
    "history": null
}, {
    "id": "538",
    "color1": null,
    "textColor1": null,
    "fullname": null,
    "shortname": null,
    "name": "Hungary",
    "initials": null,
    "nationId": null,
    "history": null
}, {
    "id": "7629",
    "color1": null,
    "textColor1": null,
    "fullname": "Iberia",
    "shortname": "Iberia",
    "name": "Iberia",
    "initials": "IBE",
    "nationId": 6,
    "history": null
}, {
    "id": "1243",
    "color1": null,
    "textColor1": null,
    "fullname": "Independiente",
    "shortname": "Independiente",
    "name": "Independiente",
    "initials": "IND",
    "nationId": 1,
    "history": null
}, {
    "id": "14347",
    "color1": null,
    "textColor1": null,
    "fullname": "Independiente de Cauquenes",
    "shortname": "Independiente",
    "name": "Independiente de Cauquenes",
    "initials": "IND",
    "nationId": 6,
    "history": null
}, {
    "id": "6073",
    "color1": null,
    "textColor1": null,
    "fullname": "Independiente del Valle",
    "shortname": "Independiente del Valle",
    "name": "Independiente del Valle",
    "initials": "IDV",
    "nationId": 8,
    "history": null
}, {
    "id": "6890",
    "color1": null,
    "textColor1": null,
    "fullname": "Independiente FBC",
    "shortname": "Independiente FBC",
    "name": "Independiente FBC",
    "initials": "IND",
    "nationId": 10,
    "history": null
}, {
    "id": "1266",
    "color1": null,
    "textColor1": null,
    "fullname": "Japón",
    "shortname": "Japón",
    "name": "Japón",
    "initials": "JPN",
    "nationId": null,
    "history": null
}, {
    "id": "11658",
    "color1": null,
    "textColor1": null,
    "fullname": null,
    "shortname": null,
    "name": "Kosovo",
    "initials": null,
    "nationId": null,
    "history": null
}, {
    "id": "2679",
    "color1": null,
    "textColor1": null,
    "fullname": "La Equidad",
    "shortname": "La Equidad",
    "name": "La Equidad",
    "initials": "EQU",
    "nationId": 7,
    "history": null
}, {
    "id": "2646",
    "color1": "#BC0E0E",
    "textColor1": "#FFFFFF",
    "fullname": "La Serena",
    "shortname": "DEP. LA SERENA",
    "name": "DEP. LA SERENA",
    "initials": "SER",
    "nationId": 6,
    "history": null
}, {
    "id": "14338",
    "color1": null,
    "textColor1": null,
    "fullname": "Lautaro de Buin",
    "shortname": "Lautaro de Buin",
    "name": "Lautaro de Buin",
    "initials": "LAU",
    "nationId": 6,
    "history": null
}, {
    "id": "519",
    "color1": null,
    "textColor1": null,
    "fullname": null,
    "shortname": null,
    "name": "Lithuania",
    "initials": null,
    "nationId": null,
    "history": null
}, {
    "id": "2684",
    "color1": null,
    "textColor1": null,
    "fullname": "Liverpool FC (Montevideo)",
    "shortname": "Liverpool",
    "name": "Liverpool FC (Montevideo)",
    "initials": "LIV",
    "nationId": 12,
    "history": null
}, {
    "id": "496",
    "color1": null,
    "textColor1": null,
    "fullname": null,
    "shortname": null,
    "name": "Luxembourg",
    "initials": null,
    "nationId": null,
    "history": null
}, {
    "id": "6072",
    "color1": null,
    "textColor1": null,
    "fullname": "Macará",
    "shortname": "Macará",
    "name": "Macará",
    "initials": "MAC",
    "nationId": 8,
    "history": null
}, {
    "id": "8654",
    "color1": "#0A77D8",
    "textColor1": "#FFFFFF",
    "fullname": "Magallanes",
    "shortname": "Magallanes",
    "name": "Magallanes",
    "initials": "MAG",
    "nationId": 6,
    "history": null
}, {
    "id": "14348",
    "color1": null,
    "textColor1": null,
    "fullname": "Club de Deportes Malleco Unido",
    "shortname": "Malleco Unido",
    "name": "Malleco Unido",
    "initials": "MAU",
    "nationId": 6,
    "history": null
}, {
    "id": "2662",
    "color1": null,
    "textColor1": null,
    "fullname": "Foot Ball Club Melgar",
    "shortname": "Melgar",
    "name": "Melgar",
    "initials": "MELG",
    "nationId": null,
    "history": null
}, {
    "id": "2648",
    "color1": null,
    "textColor1": null,
    "fullname": "Melipilla",
    "shortname": "DEP. MELIPILLA",
    "name": "DEP. MELIPILLA",
    "initials": "MEL",
    "nationId": 6,
    "history": null
}, {
    "id": "659",
    "color1": null,
    "textColor1": null,
    "fullname": null,
    "shortname": null,
    "name": "Mexico",
    "initials": null,
    "nationId": null,
    "history": null
}, {
    "id": "7068",
    "color1": null,
    "textColor1": null,
    "fullname": "Mineros de Guayana",
    "shortname": "Mineros de Guayana",
    "name": "Mineros de Guayana",
    "initials": "MDG",
    "nationId": 13,
    "history": null
}, {
    "id": "7069",
    "color1": null,
    "textColor1": null,
    "fullname": "Monagas SC",
    "shortname": "Monagas SC",
    "name": "Monagas SC",
    "initials": "MON",
    "nationId": 13,
    "history": null
}, {
    "id": "2734",
    "color1": null,
    "textColor1": null,
    "fullname": null,
    "shortname": null,
    "name": "Montenegro",
    "initials": null,
    "nationId": null,
    "history": null
}, {
    "id": "2687",
    "color1": null,
    "textColor1": null,
    "fullname": "Montevideo Wanderers",
    "shortname": "Montevideo Wanderers",
    "name": "Montevideo Wanderers",
    "initials": "MVW",
    "nationId": 12,
    "history": null
}, {
    "id": "14339",
    "color1": null,
    "textColor1": null,
    "fullname": "Club Deportivo Municipal Santiago",
    "shortname": "Municipal Santiago",
    "name": "Municipal Santiago",
    "initials": "MUS",
    "nationId": 6,
    "history": null
}, {
    "id": "9663",
    "color1": null,
    "textColor1": null,
    "fullname": "Mushuc Runa",
    "shortname": "Mushuc Runa",
    "name": "Mushuc Runa",
    "initials": "MSH",
    "nationId": 8,
    "history": null
}, {
    "id": "7084",
    "color1": null,
    "textColor1": null,
    "fullname": "Nacional Potosí",
    "shortname": "Nacional Potosí",
    "name": "Nacional Potosí",
    "initials": "NAP",
    "nationId": 4,
    "history": null
}, {
    "id": "1804",
    "color1": null,
    "textColor1": null,
    "fullname": null,
    "shortname": null,
    "name": "New Zealand",
    "initials": null,
    "nationId": null,
    "history": null
}, {
    "id": "117",
    "color1": null,
    "textColor1": null,
    "fullname": null,
    "shortname": null,
    "name": "Northern Ireland",
    "initials": null,
    "nationId": null,
    "history": null
}, {
    "id": "2649",
    "color1": null,
    "textColor1": null,
    "fullname": "Ñublense",
    "shortname": "Ñublense",
    "name": "Ñublense",
    "initials": "ÑUB",
    "nationId": 6,
    "history": null
}, {
    "id": "2650",
    "color1": "#005190",
    "textColor1": "#FFFFFF",
    "fullname": "O'Higgins",
    "shortname": "O'Higgins",
    "name": "O'Higgins",
    "initials": "OHI",
    "nationId": 6,
    "history": null
}, {
    "id": "2286",
    "color1": null,
    "textColor1": null,
    "fullname": "Once Caldas",
    "shortname": "Once Caldas",
    "name": "Once Caldas",
    "initials": "ONC",
    "nationId": 7,
    "history": null
}, {
    "id": "1416",
    "color1": null,
    "textColor1": null,
    "fullname": "Oriente Petrolero",
    "shortname": "Oriente Petrolero",
    "name": "Oriente Petrolero",
    "initials": "OPE",
    "nationId": 4,
    "history": null
}, {
    "id": "1421",
    "color1": "#188917",
    "textColor1": "#FFFFFF",
    "fullname": "Palestino",
    "shortname": "Palestino",
    "name": "Palestino",
    "initials": "PAL",
    "nationId": 6,
    "history": "Nace en la ciudad de Osorno. El club nace en unas olimpiadas de colonias, siendo fundado por inmigrantes palestinos el 20 de agosto de 1920"
}, {
    "id": "835",
    "color1": null,
    "textColor1": null,
    "fullname": "Paraguay",
    "shortname": "Paraguay",
    "name": "Paraguay",
    "initials": "PAR",
    "nationId": 10,
    "history": null
}, {
    "id": "3695",
    "color1": "#AE0909",
    "textColor1": "#FFFFFF",
    "fullname": "Paraguay Sub20",
    "shortname": "Paraguay S20",
    "name": "Paraguay S20",
    "initials": "PRY",
    "nationId": 10,
    "history": null
}, {
    "id": "par-S17",
    "color1": null,
    "textColor1": null,
    "fullname": "Asociación Paraguaya de fútbol",
    "shortname": "PAR",
    "name": "Paraguay Sub17",
    "initials": "PAR",
    "nationId": 10,
    "history": null
}, {
    "id": "874",
    "color1": null,
    "textColor1": null,
    "fullname": "Club Atlético Peñarol",
    "shortname": "Peñarol",
    "name": "Peñarol",
    "initials": "PEÑ",
    "nationId": 12,
    "history": null
}, {
    "id": "834",
    "color1": null,
    "textColor1": null,
    "fullname": "Perú",
    "shortname": "Perú",
    "name": "Perú",
    "initials": "PER",
    "nationId": null,
    "history": null
}, {
    "id": "10732",
    "color1": "#9F1717",
    "textColor1": "#FFFFFF",
    "fullname": "Perú Sub20",
    "shortname": "Perú S20",
    "name": "Perú S20",
    "initials": "PER",
    "nationId": null,
    "history": null
}, {
    "id": "per-S17",
    "color1": null,
    "textColor1": null,
    "fullname": "Federación Peruana de Fútbol",
    "shortname": "PER",
    "name": "Perú Sub17",
    "initials": "PER",
    "nationId": 11,
    "history": null
}, {
    "id": "15607",
    "color1": null,
    "textColor1": null,
    "fullname": "Pilmahue",
    "shortname": "Pilmahue",
    "name": "Pilmahue",
    "initials": "PIL",
    "nationId": 6,
    "history": null
}, {
    "id": "2651",
    "color1": null,
    "textColor1": null,
    "fullname": "Provincial Osorno",
    "shortname": "Provincial Osorno",
    "name": "Provincial Osorno",
    "initials": "OSO",
    "nationId": 6,
    "history": null
}, {
    "id": "14340",
    "color1": null,
    "textColor1": null,
    "fullname": "Club Deportivo Provincial Ovalle",
    "shortname": "Provincial Ovalle",
    "name": "Provincial Ovalle",
    "initials": "OVA",
    "nationId": 6,
    "history": null
}, {
    "id": "986",
    "color1": "#0081C7",
    "textColor1": "#FFFFFF",
    "fullname": "Racing Club",
    "shortname": "Racing Club",
    "name": "Racing Club",
    "initials": "RAC",
    "nationId": 1,
    "history": null
}, {
    "id": "2647",
    "color1": "#C71111",
    "textColor1": "#FFFFFF",
    "fullname": "Rangers",
    "shortname": "Rangers",
    "name": "Rangers",
    "initials": "RAN",
    "nationId": 6,
    "history": null
}, {
    "id": "116",
    "color1": null,
    "textColor1": null,
    "fullname": null,
    "shortname": null,
    "name": "Republic of Ireland",
    "initials": null,
    "nationId": null,
    "history": null
}, {
    "id": "7081",
    "color1": null,
    "textColor1": null,
    "fullname": "Rionegro",
    "shortname": "Rionegro",
    "name": "Rionegro",
    "initials": "RIN",
    "nationId": 7,
    "history": null
}, {
    "id": "2692",
    "color1": null,
    "textColor1": null,
    "fullname": "River Plate (Montevideo)",
    "shortname": "River Plate (Montevideo)",
    "name": "River Plate (Montevideo)",
    "initials": "RIV",
    "nationId": 12,
    "history": null
}, {
    "id": "14165",
    "color1": null,
    "textColor1": null,
    "fullname": "Royal Pari",
    "shortname": "Royal Pari",
    "name": "Royal Pari",
    "initials": "ROP",
    "nationId": 4,
    "history": null
}, {
    "id": "14349",
    "color1": null,
    "textColor1": null,
    "fullname": "San Antonio Unido",
    "shortname": "San Antonio Unido",
    "name": "San Antonio Unido",
    "initials": "SAU",
    "nationId": 6,
    "history": null
}, {
    "id": "6078",
    "color1": "#FFCA00",
    "textColor1": "#FFFFFF",
    "fullname": "San Luis",
    "shortname": "San Luis",
    "name": "San Luis",
    "initials": "SL",
    "nationId": 6,
    "history": null
}, {
    "id": "7589",
    "color1": "#3D73E0",
    "textColor1": "#FFFFFF",
    "fullname": "San Marcos",
    "shortname": "San Marcos",
    "name": "San Marcos",
    "initials": "SMA",
    "nationId": 6,
    "history": null
}, {
    "id": "2652",
    "color1": "#030000",
    "textColor1": "#000000",
    "fullname": "Santiago Morning",
    "shortname": "Santiago Morning",
    "name": "Santiago Morning",
    "initials": "SM",
    "nationId": 6,
    "history": "El club se originó luego de la fusión de dos equipos de la ciudad de Santiago en el año 1936, el Morning Star y el Santiago Football Club, la fecha de fundación se mantuvo en la más antigua de los dos clubes, la del Santiago F.C., el 16 de octubre de 1903"
}, {
    "id": "3599",
    "color1": "#0D511C",
    "textColor1": "#FFFFFF",
    "fullname": "Santiago Wanderers",
    "shortname": "Wanderers",
    "name": "Santiago Wanderers",
    "initials": "SW",
    "nationId": 6,
    "history": null
}, {
    "id": "1303",
    "color1": null,
    "textColor1": null,
    "fullname": "Santos",
    "shortname": "Santos",
    "name": "Santos",
    "initials": "SAN",
    "nationId": 5,
    "history": null
}, {
    "id": "6888",
    "color1": null,
    "textColor1": null,
    "fullname": "Sol de América",
    "shortname": "Sol de América",
    "name": "Sol de América",
    "initials": "SOA",
    "nationId": 10,
    "history": null
}, {
    "id": "5980",
    "color1": null,
    "textColor1": null,
    "fullname": "Sport Huancayo",
    "shortname": "Sport Huancayo",
    "name": "Sport Huancayo",
    "initials": "SHU",
    "nationId": null,
    "history": null
}, {
    "id": "806",
    "color1": null,
    "textColor1": null,
    "fullname": "Club Sporting Cristal",
    "shortname": "Cristal",
    "name": "Sporting Cristal",
    "initials": "SPO",
    "nationId": null,
    "history": null
}, {
    "id": "14341",
    "color1": null,
    "textColor1": null,
    "fullname": "Club Deportivo, Social y Cultural Tomás Greig",
    "shortname": "Tomás Greig",
    "name": "Tomás Greig",
    "initials": "TOG",
    "nationId": 6,
    "history": null
}, {
    "id": "15608",
    "color1": null,
    "textColor1": null,
    "fullname": "Trasandino",
    "shortname": "Trasandino",
    "name": "Trasandino",
    "initials": "TRA",
    "nationId": 6,
    "history": null
}, {
    "id": "1433",
    "color1": "#00A0FF",
    "textColor1": "#FFFFFF",
    "fullname": "U. Católica",
    "shortname": "U. Catolica",
    "name": "U. Católica",
    "initials": "UCA",
    "nationId": 6,
    "history": null
}, {
    "id": "2654",
    "color1": "#A1A118",
    "textColor1": "#FFFFFF",
    "fullname": "U. Concepción",
    "shortname": "U. de Concepción",
    "name": "U. Concepción",
    "initials": "UDC",
    "nationId": 6,
    "history": null
}, {
    "id": "510",
    "color1": null,
    "textColor1": null,
    "fullname": null,
    "shortname": null,
    "name": "Ukraine",
    "initials": null,
    "nationId": null,
    "history": null
}, {
    "id": "6389",
    "color1": null,
    "textColor1": null,
    "fullname": "U. La Calera",
    "shortname": "U. La Calera",
    "name": "U. La Calera",
    "initials": "ULC",
    "nationId": 6,
    "history": null
}, {
    "id": "2653",
    "color1": "#B50505",
    "textColor1": "#FFFFFF",
    "fullname": "Unión Española",
    "shortname": "U. Española",
    "name": "Unión Española",
    "initials": "UES",
    "nationId": 6,
    "history": null
}, {
    "id": "6374",
    "color1": null,
    "textColor1": null,
    "fullname": "Unión Santa Fe",
    "shortname": "Unión Santa Fe",
    "name": "Unión Santa Fe",
    "initials": "UNI",
    "nationId": 1,
    "history": null
}, {
    "id": "6071",
    "color1": null,
    "textColor1": null,
    "fullname": "Universidad Católica (Ecuador)",
    "shortname": "U. Católica (ECU)",
    "name": "U. Católica (Ecuador)",
    "initials": "UCE",
    "nationId": 8,
    "history": null
}, {
    "id": "947",
    "color1": "#002253",
    "textColor1": "#FFFFFF",
    "fullname": "Club de Fútbol Profesional de la Universidad de Chile",
    "shortname": "U. de Chile",
    "name": "Universidad de Chile",
    "initials": "UCH",
    "nationId": 6,
    "history": null
}, {
    "id": "837",
    "color1": null,
    "textColor1": null,
    "fullname": "Uruguay",
    "shortname": "Uruguay",
    "name": "Uruguay",
    "initials": "URU",
    "nationId": 12,
    "history": null
}, {
    "id": "3696",
    "color1": "#1D7F8B",
    "textColor1": "#FFFFFF",
    "fullname": "Uruguay Sub20",
    "shortname": "Uruguay S20",
    "name": "Uruguay S20",
    "initials": "URU",
    "nationId": 12,
    "history": null
}, {
    "id": "uru-S17",
    "color1": null,
    "textColor1": null,
    "fullname": "Asociación Uruguaya de Fútbol",
    "shortname": "URU",
    "name": "Uruguay Sub17",
    "initials": "URU",
    "nationId": 11,
    "history": null
}, {
    "id": "596",
    "color1": null,
    "textColor1": null,
    "fullname": null,
    "shortname": null,
    "name": "USA",
    "initials": null,
    "nationId": null,
    "history": null
}, {
    "id": "5978",
    "color1": null,
    "textColor1": null,
    "fullname": "U. San Felipe",
    "shortname": "Unión San Felipe",
    "name": "U. San Felipe",
    "initials": "USF",
    "nationId": 6,
    "history": null
}, {
    "id": "7599",
    "color1": null,
    "textColor1": null,
    "fullname": "UTC Cajamarca",
    "shortname": "UTC Cajamarca",
    "name": "UTC Cajamarca",
    "initials": "UTC",
    "nationId": null,
    "history": null
}, {
    "id": "833",
    "color1": null,
    "textColor1": null,
    "fullname": "Venezuela",
    "shortname": "Venezuela",
    "name": "Venezuela",
    "initials": "VEN",
    "nationId": 13,
    "history": null
}, {
    "id": "3697",
    "color1": "#671024",
    "textColor1": "#FFFFFF",
    "fullname": "Venezuela Sub20",
    "shortname": "Venezuela S20",
    "name": "Venezuela S20",
    "initials": "VEN",
    "nationId": 13,
    "history": null
}, {
    "id": "ven-S17",
    "color1": null,
    "textColor1": null,
    "fullname": "Federación Venezolana de Fútbol",
    "shortname": "VEN",
    "name": "Venezuela Sub17",
    "initials": "VEN",
    "nationId": 13,
    "history": null
}, {
    "id": "508",
    "color1": null,
    "textColor1": null,
    "fullname": null,
    "shortname": null,
    "name": "Wales",
    "initials": null,
    "nationId": null,
    "history": null
}, {
    "id": "7113",
    "color1": null,
    "textColor1": null,
    "fullname": "Zulia",
    "shortname": "Zulia",
    "name": "Zulia",
    "initials": "ZUL",
    "nationId": 13,
    "history": null
}]